[Fri Feb  9 21:43:19 PST 2018] 0 of 1 tests passed
[Fri Feb  9 21:46:01 PST 2018] 0 of 1 tests passed
[Mon Feb 12 07:45:57 PST 2018] 0 of 1 tests passed
[Mon Feb 12 07:46:43 PST 2018] 0 of 1 tests passed
[Mon Feb 12 07:48:29 PST 2018] 0 of 1 tests passed
[Mon Feb 12 07:50:15 PST 2018] 0 of 1 tests passed
[Mon Feb 12 07:52:23 PST 2018] 0 of 1 tests passed
[Mon Feb 12 07:53:05 PST 2018] 0 of 1 tests passed
[Mon Feb 12 07:54:31 PST 2018] 0 of 1 tests passed
[Mon Feb 12 07:55:23 PST 2018] 0 of 1 tests passed
[Mon Feb 12 18:30:02 PST 2018] 0 of 1 tests passed
[Mon Feb 12 18:43:25 PST 2018] 1 of 1 tests passed
